[
  {
    "name": "13kjulz",
    "friend_code": "850433018845",
    "real_name": "Julie",
    "team": "Mystic"
  },
  {
    "name": "1butanol",
    "friend_code": "957975136222",
    "real_name": "Jiwoo",
    "team": "Mystic"
  },
  {
    "name": "AceTrainerSethZ",
    "friend_code": "539232489548",
    "real_name": "Seth",
    "team": "Mystic"
  },
  {
    "name": "ACruz31",
    "friend_code": "833491104682",
    "real_name": "Alex",
    "team": "Valor"
  },
  {
    "name": "Agorazium",
    "friend_code": "737505788133",
    "real_name": "Tyler",
    "team": "Mystic"
  },
  {
    "name": "Akiavaa",
    "friend_code": "941289143606",
    "real_name": "Edward",
    "team": "Mystic"
  },
  {
    "name": "AlchemistFelix",
    "friend_code": "708092087212",
    "real_name": "Felix",
    "team": ""
  },
  {
    "name": "AmberFebruary",
    "friend_code": "942338981209",
    "real_name": "Amber",
    "team": "Mystic"
  },
  {
    "name": "amiaheroyet",
    "friend_code": "886593742276",
    "real_name": "Mark",
    "team": "Instinct"
  },
  {
    "name": "Ananqi ",
    "friend_code": "365218923306",
    "real_name": "",
    "team": "Mystic"
  },
  {
    "name": "Arafel123",
    "friend_code": "914507175015",
    "real_name": "Sara-Jane",
    "team": "Mystic"
  },
  {
    "name": "AriOfMystery",
    "friend_code": "793415060230",
    "real_name": "Ari",
    "team": "Valor"
  },
  {
    "name": "Arneral",
    "friend_code": "522044689529",
    "real_name": "Deb",
    "team": "Valor"
  },
  {
    "name": "AsphaltPunk",
    "friend_code": "492160240302",
    "real_name": "Victoria",
    "team": "Valor"
  },
  {
    "name": "Aubreycito",
    "friend_code": "357292694164",
    "real_name": "Aubrey",
    "team": "Instinct"
  },
  {
    "name": "audiodev",
    "friend_code": "095766025527",
    "real_name": "Leo",
    "team": "Mystic"
  },
  {
    "name": "BarelyAlice",
    "friend_code": "516185091562",
    "real_name": "Alice",
    "team": "Mystic"
  },
  {
    "name": "BenWhight",
    "friend_code": "592863725664",
    "real_name": "Ben",
    "team": "Instinct"
  },
  {
    "name": "Bullcityboss ",
    "friend_code": "699275748337",
    "real_name": "Erin",
    "team": "Valor "
  },
  {
    "name": "Cakebiotch",
    "friend_code": "716115526364",
    "real_name": "Nancy",
    "team": "Valor"
  },
  {
    "name": "cba",
    "friend_code": "011548237047",
    "real_name": "mad",
    "team": ""
  },
  {
    "name": "chenmlml ",
    "friend_code": "208132014266",
    "real_name": "Mingliu",
    "team": "Instinct"
  },
  {
    "name": "ClayDayClay",
    "friend_code": "208658528306",
    "real_name": "Alicia",
    "team": "Mystic"
  },
  {
    "name": "connormxy",
    "friend_code": "265834876861",
    "real_name": "Connor",
    "team": "Instinct"
  },
  {
    "name": "CosmicLemonade",
    "friend_code": "258243896400",
    "real_name": "Aaron",
    "team": "Valor"
  },
  {
    "name": "CulDeZach",
    "friend_code": "062183624707",
    "real_name": "Zach",
    "team": "Instinct"
  },
  {
    "name": "Cx3927",
    "friend_code": "078521962148",
    "real_name": "Christine ",
    "team": "Instinct"
  },
  {
    "name": "Darko Farmer",
    "friend_code": "223279646083",
    "real_name": "Will",
    "team": "Mystic"
  },
  {
    "name": "Deannkris2002",
    "friend_code": "490575223062",
    "real_name": "kris",
    "team": "mystic"
  },
  {
    "name": "DerpFicus",
    "friend_code": "131938752088",
    "real_name": "Eitan",
    "team": "Mystic"
  },
  {
    "name": "dimitriv93",
    "friend_code": "733947081990",
    "real_name": "Dimitri",
    "team": "Valor"
  },
  {
    "name": "Divinity4",
    "friend_code": "817471238320",
    "real_name": "",
    "team": "Valor"
  },
  {
    "name": "DizzleMcSizzle",
    "friend_code": "350800809702",
    "real_name": "Derek",
    "team": "Mystic"
  },
  {
    "name": "DoctorThalamus",
    "friend_code": "357814129939",
    "real_name": "Jeff",
    "team": "Valor"
  },
  {
    "name": "dogdaysindurham",
    "friend_code": "692039414439",
    "real_name": "Chris L",
    "team": "Valor"
  },
  {
    "name": "DrBirtha",
    "friend_code": "067830435069",
    "real_name": "Danette",
    "team": "Mystic"
  },
  {
    "name": "Dreamseemd4away",
    "friend_code": "334083904157",
    "real_name": "Drew",
    "team": "Valor"
  },
  {
    "name": "dreuzi90",
    "friend_code": "756690714127",
    "real_name": "Mario",
    "team": "Valor"
  },
  {
    "name": "DrPepperLives23",
    "friend_code": "959771534845",
    "real_name": "Stephen W",
    "team": "Instinct"
  },
  {
    "name": "E1nfesteBurg",
    "friend_code": "363502522908",
    "real_name": "Katie",
    "team": "Instinct"
  },
  {
    "name": "Ebellinator",
    "friend_code": "642331199652",
    "real_name": "Erin",
    "team": "Valor"
  },
  {
    "name": "ErisBakes",
    "friend_code": "614837889429",
    "real_name": "JulieAnn",
    "team": "Instinct"
  },
  {
    "name": "Exlerate",
    "friend_code": "401908543962",
    "real_name": "",
    "team": "Mystic"
  },
  {
    "name": "FeedMeBeer",
    "friend_code": "543794964847",
    "real_name": "John",
    "team": "Valor"
  },
  {
    "name": "Filmonster",
    "friend_code": "060113134907",
    "real_name": "Filmon",
    "team": "Mystic"
  },
  {
    "name": "FinnDelMundo",
    "friend_code": "624407922198",
    "real_name": "Finn",
    "team": "Valor"
  },
  {
    "name": "Forced2Change",
    "friend_code": "334490438975",
    "real_name": "dean",
    "team": "valor"
  },
  {
    "name": "FreyasGpa",
    "friend_code": "482239001319",
    "real_name": "Scott",
    "team": "Instinct"
  },
  {
    "name": "gemenon",
    "friend_code": "207407303193",
    "real_name": "Kevin",
    "team": "Valor"
  },
  {
    "name": "grandpabraves",
    "friend_code": "397085894620",
    "real_name": "Ed",
    "team": "Valor"
  },
  {
    "name": "Greederson",
    "friend_code": "654572534455",
    "real_name": "Yuan-Mao (YK)",
    "team": "Instinct"
  },
  {
    "name": "GymFowler",
    "friend_code": "572112596137",
    "real_name": "Susan",
    "team": "Mystic"
  },
  {
    "name": "HayHayTayTay",
    "friend_code": "762329599872",
    "real_name": "Taylor",
    "team": "Valor"
  },
  {
    "name": "hazlenut14",
    "friend_code": "477221679850",
    "real_name": "Mariah",
    "team": "instinct"
  },
  {
    "name": "HumperdinkMcG",
    "friend_code": "572863563567",
    "real_name": "",
    "team": "Valor"
  },
  {
    "name": "hunterb2003",
    "friend_code": "744951115776",
    "real_name": "Hunter",
    "team": "Valor"
  },
  {
    "name": "HvacMan1973",
    "friend_code": "242506066195",
    "real_name": "Don",
    "team": "Mystic"
  },
  {
    "name": "HyugaFeifei",
    "friend_code": "799286559600",
    "real_name": "Junfei ",
    "team": "Valor "
  },
  {
    "name": "Inmer",
    "friend_code": "991108887493",
    "real_name": "",
    "team": "Mystic"
  },
  {
    "name": "ItsMisterTtoYou ",
    "friend_code": "997785316585",
    "real_name": "Austin",
    "team": "Mystic"
  },
  {
    "name": "Joost12714",
    "friend_code": "945533913494",
    "real_name": "Joost",
    "team": "Valor"
  },
  {
    "name": "JuJuBeanz99",
    "friend_code": "678354262239",
    "real_name": "Justin",
    "team": "Instinct"
  },
  {
    "name": "Kakashikafka",
    "friend_code": "910202996731",
    "real_name": "Ben",
    "team": "Mystic"
  },
  {
    "name": "Keefbomb",
    "friend_code": "871454074728",
    "real_name": "Emily",
    "team": "Mystic"
  },
  {
    "name": "Kittttyyy",
    "friend_code": "383893322207",
    "real_name": "Kat",
    "team": "Mystic"
  },
  {
    "name": "KooncinAround",
    "friend_code": "404574133306",
    "real_name": "Alex",
    "team": "Indiscriminate"
  },
  {
    "name": "Ladyzerosix",
    "friend_code": "783492084294",
    "real_name": "",
    "team": "Mystic"
  },
  {
    "name": "LAFOOTBALL",
    "friend_code": "503476207421",
    "real_name": "Allen",
    "team": "Mystic"
  },
  {
    "name": "LemurDoc74 ",
    "friend_code": "518107546021",
    "real_name": "Brian",
    "team": "Mystic"
  },
  {
    "name": "LilCruz31",
    "friend_code": "898681507247",
    "real_name": "Adrian",
    "team": "Valor"
  },
  {
    "name": "Lodter123 ",
    "friend_code": "832904341723",
    "real_name": "Jack",
    "team": "Mystic"
  },
  {
    "name": "Lunaria3",
    "friend_code": "355911631942",
    "real_name": "Dena",
    "team": "Instinct"
  },
  {
    "name": "lynchie04",
    "friend_code": "751511816822",
    "real_name": "Chris",
    "team": "Valor"
  },
  {
    "name": "masterdoolin",
    "friend_code": "891391678904",
    "real_name": "Matt",
    "team": "Mystic"
  },
  {
    "name": "Matrix11511",
    "friend_code": "146170988326",
    "real_name": "Matthew",
    "team": ""
  },
  {
    "name": "moats002",
    "friend_code": "144270307070",
    "real_name": "Lynn",
    "team": "Valor"
  },
  {
    "name": "NCBigPoppa",
    "friend_code": "242753085406",
    "real_name": "Adam",
    "team": "Mystic"
  },
  {
    "name": "Nepeta919",
    "friend_code": "313219172756",
    "real_name": "Jennifer ",
    "team": "Mystic"
  },
  {
    "name": "NevNev29",
    "friend_code": "320526626997",
    "real_name": "Aaliyah",
    "team": "Valor "
  },
  {
    "name": "Nomadgabe6",
    "friend_code": "341980252431",
    "real_name": "Ralph",
    "team": "Mystic"
  },
  {
    "name": "OAstrachan",
    "friend_code": "272887438306",
    "real_name": "Owen",
    "team": "Mystic "
  },
  {
    "name": "Obakan",
    "friend_code": "342124778172",
    "real_name": "Zach",
    "team": "Mystic"
  },
  {
    "name": "OfficerJennaaay",
    "friend_code": "212000926128",
    "real_name": "Jalal",
    "team": "Mystic"
  },
  {
    "name": "Omazu",
    "friend_code": "444006163602",
    "real_name": "Anthony",
    "team": "Valor"
  },
  {
    "name": "Ottojr68",
    "friend_code": "744878742974",
    "real_name": "Otto",
    "team": "mystic"
  },
  {
    "name": "Peppermace2",
    "friend_code": "315216123252",
    "real_name": "Brian",
    "team": "Valor"
  },
  {
    "name": "Perdrixx",
    "friend_code": "529653004497",
    "real_name": "Elena",
    "team": "Mystic"
  },
  {
    "name": "PidgeyKingChris",
    "friend_code": "099709601014",
    "real_name": "Chris",
    "team": "Instinct"
  },
  {
    "name": "pigluva13",
    "friend_code": "437057545854",
    "real_name": "Natasha",
    "team": "Mystic"
  },
  {
    "name": "plan4change",
    "friend_code": "434278627098",
    "real_name": "Randy",
    "team": "Instinct "
  },
  {
    "name": "PokeBallaMeta",
    "friend_code": "266174581434",
    "real_name": "Meta",
    "team": "Mystic"
  },
  {
    "name": "Pokejumbo66",
    "friend_code": "867775625291",
    "real_name": "Jim",
    "team": "Mystic"
  },
  {
    "name": "Pokemeholemon",
    "friend_code": "587130075916",
    "real_name": "Christian",
    "team": "Instinct"
  },
  {
    "name": "pokmostination",
    "friend_code": "513823339387",
    "real_name": "Stacy",
    "team": "Valor"
  },
  {
    "name": "punchguy7",
    "friend_code": "097326078616",
    "real_name": "John",
    "team": "Valor"
  },
  {
    "name": "Qwuty",
    "friend_code": "928278714744",
    "real_name": "Qwuty",
    "team": "Valor"
  },
  {
    "name": "qynntessence",
    "friend_code": "289636826212",
    "real_name": "Quinn",
    "team": "Mystic"
  },
  {
    "name": "R3dHamm3r",
    "friend_code": "955824880859",
    "real_name": "Jess",
    "team": "Valor"
  },
  {
    "name": "R3dSickl3",
    "friend_code": "114269421639",
    "real_name": "Ryan",
    "team": "Valor"
  },
  {
    "name": "RamaLlamaMama",
    "friend_code": "640061887191",
    "real_name": "Rosa",
    "team": "Mystic"
  },
  {
    "name": "Rattcheter",
    "friend_code": "843926092696",
    "real_name": "Keith (OG)",
    "team": "Team V"
  },
  {
    "name": "Ravensclaw56",
    "friend_code": "953439062700",
    "real_name": "Mike",
    "team": "Mystic"
  },
  {
    "name": "Rcatcher",
    "friend_code": "069390823523",
    "real_name": "Ryan",
    "team": "Valor"
  },
  {
    "name": "reckonerX",
    "friend_code": "713785053655",
    "real_name": "Will",
    "team": "Mystic"
  },
  {
    "name": "RedCaitlean",
    "friend_code": "158096419669",
    "real_name": "Sara-Jane",
    "team": "Instinct"
  },
  {
    "name": "RedRachel22",
    "friend_code": "371152433865",
    "real_name": "Rachel",
    "team": "Mystic"
  },
  {
    "name": "Rishenko",
    "friend_code": "820827554611",
    "real_name": "Kevin",
    "team": "Mystic"
  },
  {
    "name": "Rydenson ",
    "friend_code": "468814216154",
    "real_name": "Mason",
    "team": "Valor"
  },
  {
    "name": "Schockfam",
    "friend_code": "739236304081",
    "real_name": "",
    "team": "Valor"
  },
  {
    "name": "scrpkym ",
    "friend_code": "808091158478",
    "real_name": "Kym",
    "team": "Mystic"
  },
  {
    "name": "ScrubPantz",
    "friend_code": "655795773162",
    "real_name": "Carlos",
    "team": "Valor"
  },
  {
    "name": "shadoweskar",
    "friend_code": "359972074543",
    "real_name": "David",
    "team": "Valor"
  },
  {
    "name": "Shawmalama",
    "friend_code": "597175086124",
    "real_name": "Xiao",
    "team": "Valor"
  },
  {
    "name": "SheriSew",
    "friend_code": "170488009054",
    "real_name": "Cheryl",
    "team": "Instinct"
  },
  {
    "name": "Shetoocute1234 ",
    "friend_code": "167342365679",
    "real_name": "",
    "team": "Mystic"
  },
  {
    "name": "ShoelessJohan",
    "friend_code": "680911372567",
    "real_name": "Johan",
    "team": "Mystic"
  },
  {
    "name": "SibeWorld3",
    "friend_code": "508076685740",
    "real_name": "John E",
    "team": "Mystic"
  },
  {
    "name": "Sieziggy",
    "friend_code": "986460134290",
    "real_name": "Steve",
    "team": "Mystic"
  },
  {
    "name": "Stormybluemica",
    "friend_code": "323962797518",
    "real_name": "Andy is Level 38",
    "team": "Mystic"
  },
  {
    "name": "stuey2180",
    "friend_code": "453352006456",
    "real_name": "Stuart",
    "team": "Instinct"
  },
  {
    "name": "Suikoden150",
    "friend_code": "112540806226",
    "real_name": "Ricky",
    "team": "Mystic"
  },
  {
    "name": "SyracusefaninNC ",
    "friend_code": "328818111842",
    "real_name": "Scott",
    "team": "Mystic"
  },
  {
    "name": "Talorian35",
    "friend_code": "733516616808",
    "real_name": "Deb",
    "team": "Valor"
  },
  {
    "name": "Tankgurrll",
    "friend_code": "901018265057",
    "real_name": "Mollie",
    "team": "Mystic"
  },
  {
    "name": "TebanBlk54",
    "friend_code": "130829473247",
    "real_name": "Charles",
    "team": "Mystic"
  },
  {
    "name": "Tiny29",
    "friend_code": "566285688054",
    "real_name": "Jackie",
    "team": "Valor"
  },
  {
    "name": "topnat",
    "friend_code": "502461767264",
    "real_name": "Natalie",
    "team": "Valor"
  },
  {
    "name": "Trockmorten",
    "friend_code": "977283319101",
    "real_name": "",
    "team": "Valor "
  },
  {
    "name": "Tyler14141",
    "friend_code": "029681438128",
    "real_name": "Tyler",
    "team": "Mystic"
  },
  {
    "name": "Valabouttown",
    "friend_code": "305486895325",
    "real_name": "Eleanor",
    "team": "Mystic"
  },
  {
    "name": "Valersia",
    "friend_code": "878431881025",
    "real_name": "Sharon",
    "team": "Valor"
  },
  {
    "name": "Verditude",
    "friend_code": "460862878668",
    "real_name": "",
    "team": "Mystic"
  },
  {
    "name": "WandererShadow6",
    "friend_code": "389343129812",
    "real_name": "Ralph",
    "team": "Instinct"
  },
  {
    "name": "waterdruids",
    "friend_code": "294264638872",
    "real_name": "",
    "team": "instinct"
  },
  {
    "name": "WilliamMarshyMa",
    "friend_code": "529767152093",
    "real_name": "William",
    "team": "Valor"
  },
  {
    "name": "Wishbonezz",
    "friend_code": "Oneminute...",
    "real_name": "William",
    "team": "Valor"
  },
  {
    "name": "Wtgyoyomama",
    "friend_code": "068548352003",
    "real_name": "Justice",
    "team": "Instinct"
  },
  {
    "name": "xxxEDRICKxxx",
    "friend_code": "877617842809",
    "real_name": "Edrick",
    "team": "Instinct"
  },
  {
    "name": "Zetan4",
    "friend_code": "037545392953",
    "real_name": "Shane",
    "team": "Mystic"
  },
  {
    "name": "zzDoctorWhozz ",
    "friend_code": "535552128688",
    "real_name": "Chris",
    "team": "Valor"
  },
  {
    "name": "",
    "friend_code": "456649818911",
    "real_name": "Vincent",
    "team": "Mystic"
  },
  {
    "name": "Jonthanr305",
    "friend_code": "735393009190",
    "real_name": "Jonathan",
    "team": "Valor"
  },
  {
    "name": "Eosmeep",
    "friend_code": "329074085771",
    "real_name": "Ari",
    "team": "Valor"
  },
  {
    "name": "CheleTropic",
    "friend_code": "230959570472",
    "real_name": "",
    "team": "Mystic"
  },
  {
    "name": "Richstr",
    "friend_code": "124211817719",
    "real_name": "Rich",
    "team": "Instinct"
  },
  {
    "name": "Scrubmasterflex ",
    "friend_code": "451756085618",
    "real_name": "AJ",
    "team": "Mystic"
  }
]
