[
  {
    "species": "",
    "name": "Bennett Place",
    "address": "4409 Bennett Memorial Rd",
    "latitude": 36.029407,
    "langitude": -78.975047,
    "spawn_rate": "Low",
    "note": ""
  },
  {
    "species": "",
    "name": "Bethesda Park",
    "address": "1814 Stage Rd",
    "latitude": 35.94418,
    "langitude": -78.846988,
    "spawn_rate": "Medium",
    "note": ""
  },
  {
    "species": "",
    "name": "Campus Hill Park",
    "address": "2000 S Alston Ave",
    "latitude": 35.960259,
    "langitude": -78.890376,
    "spawn_rate": "Low",
    "note": ""
  },
  {
    "species": "",
    "name": "Cook Road Park",
    "address": "602 Cook Rd",
    "latitude": 35.952372,
    "langitude": -78.912874,
    "spawn_rate": "Medium",
    "note": ""
  },
  {
    "species": "",
    "name": "Cornwallis Rd Park",
    "address": "2830 Wade Rd",
    "latitude": 35.97855,
    "langitude": -78.95251,
    "spawn_rate": "Low",
    "note": ""
  },
  {
    "species": "",
    "name": "Croasdaile Country Club",
    "address": "3800 Farm Gate Ave",
    "latitude": 36.030545,
    "langitude": -78.947799,
    "spawn_rate": "Low",
    "note": ""
  },
  {
    "species": "Swinub",
    "name": "Duke Gardens",
    "address": "420 Anderson St",
    "latitude": 36.00205,
    "langitude": -78.93152,
    "spawn_rate": "High"
  },
  {
    "species": "",
    "name": "Duke Homestead",
    "address": "2828 Duke Homestead Rd",
    "latitude": 36.035743,
    "langitude": -78.92115,
    "spawn_rate": "",
    "note": ""
  },
  {
    "species": "",
    "name": "Duke Park",
    "address": "106 W Knox St",
    "latitude": 36.01268,
    "langitude": -78.89315,
    "spawn_rate": "Low",
    "note": ""
  },
  {
    "species": "",
    "name": "Duke University Golf Club (Washington Duke Inn)",
    "address": "3001 Cameron Blvd",
    "latitude": 35.993039,
    "langitude": -78.94737,
    "spawn_rate": "Medium",
    "note": ""
  },
  {
    "species": "",
    "name": "Durham Central Park",
    "address": "501 Foster St",
    "latitude": 36.00059,
    "langitude": -78.90186,
    "spawn_rate": "Low",
    "note": ""
  },
  {
    "species": "",
    "name": "East End Park",
    "address": "1200 N Alston Ave",
    "latitude": 35.997795,
    "langitude": -78.886792,
    "spawn_rate": "Low",
    "note": ""
  },
  {
    "species": "",
    "name": "Elmira Avenue Park",
    "address": "540 Elmira Ave",
    "latitude": 35.96454,
    "langitude": -78.903576,
    "spawn_rate": "Low",
    "note": ""
  },
  {
    "species": "",
    "name": "Eno River- Fews Ford (Cole Mill RD)",
    "address": "6101 Cole Mill Rd",
    "latitude": 36.07847,
    "langitude": -79.00508,
    "spawn_rate": "Low",
    "note": ""
  },
  {
    "species": "",
    "name": "Forest Hills Park (Northern Field)",
    "address": "504 E Forest Hills Blvd",
    "latitude": 35.98016,
    "langitude": -78.91134,
    "spawn_rate": "",
    "note": ""
  },
  {
    "species": "",
    "name": "Forest Hills Park",
    "address": "504 E Forest Hills Blvd",
    "latitude": 35.98016,
    "langitude": -78.91134,
    "spawn_rate": "",
    "note": ""
  },
  {
    "species": "",
    "name": "Garrett Road Park",
    "address": "6815 Garrett Rd",
    "latitude": 35.92227,
    "langitude": -78.9598,
    "spawn_rate": "Medium",
    "note": ""
  },
  {
    "species": "",
    "name": "Herndon Park",
    "address": "511 Scott King Rd",
    "latitude": 35.8561,
    "langitude": -78.92228,
    "spawn_rate": "",
    "note": ""
  },
  {
    "species": "Meditite",
    "name": "Hillandale Golf Course",
    "address": "1600 Hillandale Rd",
    "latitude": 36.02402,
    "langitude": -78.93531,
    "spawn_rate": "",
    "note": ""
  },
  {
    "species": "",
    "name": "Hillside Park",
    "address": "1221 Sawyer St",
    "latitude": 35.981298,
    "langitude": -78.903032,
    "spawn_rate": "Low",
    "note": ""
  },
  {
    "species": "",
    "name": "Hope Valley Country Club",
    "address": "3803 Dover Rd",
    "latitude": 35.947275,
    "langitude": -78.951836,
    "spawn_rate": "Medium",
    "note": ""
  },
  {
    "species": "Teddiursa",
    "name": "Indian Trail Park",
    "address": "2499 Indian Trail",
    "latitude": 36.023796,
    "langitude": -78.92915,
    "spawn_rate": "",
    "note": ""
  },
  {
    "species": "",
    "name": "Museum of Life & Science",
    "address": "433 W Murray Ave",
    "latitude": 36.02931,
    "langitude": -78.89927,
    "spawn_rate": "Low",
    "note": ""
  },
  {
    "species": "",
    "name": "North Carolina Central Campus",
    "address": "1801 Fayetteville St",
    "latitude": 35.974737,
    "langitude": -78.898101,
    "spawn_rate": "",
    "note": ""
  },
  {
    "species": "",
    "name": "Northgate Park",
    "address": "300 W Club Blvd",
    "latitude": 36.0345,
    "langitude": -78.86031,
    "spawn_rate": "Low",
    "note": ""
  },
  {
    "species": "",
    "name": "Old Chapel Hill Road Park",
    "address": "4702 Old Chapel Hill Rd",
    "latitude": 35.947319,
    "langitude": -78.979257,
    "spawn_rate": "Low",
    "note": ""
  },
  {
    "species": "",
    "name": "Old North Durham Park",
    "address": "310 W Geer St",
    "latitude": 36.004308,
    "langitude": -78.899813,
    "spawn_rate": "",
    "note": ""
  },
  {
    "species": "",
    "name": "Orchard Park",
    "address": "1000 S Duke St",
    "latitude": 35.98854,
    "langitude": -78.9099,
    "spawn_rate": "Low",
    "note": ""
  },
  {
    "species": "",
    "name": "Piedmont Wildlife Center (Leigh Farm Park)",
    "address": "364 Leigh Farm Rd",
    "latitude": 35.922959,
    "langitude": -78.982648,
    "spawn_rate": "Low",
    "note": ""
  },
  {
    "species": "",
    "name": "Piney Wood Park",
    "address": "400 E Woodcroft Pkwy",
    "latitude": 35.9149,
    "langitude": -78.92034,
    "spawn_rate": "",
    "note": ""
  },
  {
    "species": "",
    "name": "Quarry Park",
    "address": "500 Murray Ave",
    "latitude": 36.031737,
    "langitude": -78.902356,
    "spawn_rate": "",
    "note": ""
  },
  {
    "species": "",
    "name": "Rockwood Park",
    "address": "2310 Whitley Dr",
    "latitude": 35.972949,
    "langitude": -78.92181,
    "spawn_rate": "Low",
    "note": ""
  },
  {
    "species": "",
    "name": "Sandy Creek Park",
    "address": "3510 Sandy Creek Dr",
    "latitude": 35.96952,
    "langitude": -78.96868,
    "spawn_rate": "Medium",
    "note": ""
  },
  {
    "species": "",
    "name": "Solite Park",
    "address": "4704 Fayetteville Rd",
    "latitude": 35.935773,
    "langitude": -78.909736,
    "spawn_rate": "Low",
    "note": ""
  },
  {
    "species": "",
    "name": "Southern Boundaries Park",
    "address": "100 3rd Fork Road",
    "latitude": 35.956827,
    "langitude": -78.928093,
    "spawn_rate": "Low",
    "note": ""
  },
  {
    "species": "",
    "name": "Umstead Pines @ Willowhaven Golf & Swim Club",
    "address": "253 Country Club Dr",
    "latitude": 36.070736,
    "langitude": -78.968663,
    "spawn_rate": "Low",
    "note": ""
  },
  {
    "species": "",
    "name": "Valley Springs Park",
    "address": "3805 Valley Springs Road",
    "latitude": 36.053614,
    "langitude": -78.961038,
    "spawn_rate": "Low",
    "note": ""
  },
  {
    "species": "",
    "name": "West Point on the Eno",
    "address": "5101 N Roxboro St",
    "latitude": 36.06822,
    "langitude": -78.90854,
    "spawn_rate": "Medium",
    "note": ""
  },
  {
    "species": "",
    "name": "Whipporwill Park",
    "address": "1632 Rowemont Dr",
    "latitude": 36.047345,
    "langitude": -78.923468,
    "spawn_rate": "",
    "note": ""
  },
  {
    "species": "",
    "name": "Willowhaven Country Club",
    "address": "253 Country Club Dr",
    "latitude": 36.06941,
    "langitude": -78.96849,
    "spawn_rate": "",
    "note": ""
  },
  {
    "species": "",
    "name": "Woodcroft Swim Club",
    "address": "1203 W Woodcroft Pkwy",
    "latitude": 35.92085,
    "langitude": -78.95048,
    "spawn_rate": "",
    "note": ""
  },
  {
    "species": "",
    "name": "Area opposite Octagon Building (Duke Medicine Center)",
    "address": "Duke Medicine Circle Parking, 302 Trent Dr",
    "latitude": 36.00436,
    "langitude": -78.93489,
    "spawn_rate": "Low",
    "note": ""
  },
  {
    "species": "",
    "name": "Searle Center Fountain",
    "address": "Duke University Medical Center Greenspace",
    "latitude": 36.005182,
    "langitude": -78.937745,
    "spawn_rate": "Low",
    "note": ""
  },
  {
    "species": "Yanma",
    "name": "Duke Med Circle",
    "address": "Dumc Box 3094, Durham, NC 27710",
    "latitude": 36.00559,
    "langitude": -78.93559,
    "spawn_rate": "Low",
    "note": ""
  },
  {
    "species": "",
    "name": "Jack Coombs Field",
    "address": "101 Whitford Dr",
    "latitude": 35.997208,
    "langitude": -78.944260,
    "spawn_rate": "Low",
    "note": ""
  },
  {
    "species": "",
    "name": "East Campus Baldwin Auditorium",
    "address": "Baldwin Building, Durham, NC 27705",
    "latitude": 36.008840,
    "langitude": -78.914658,
    "spawn_rate": "Low",
    "note": ""
  },
  {
    "species": "",
    "name": "East Campus bus circle",
    "address": "West Duke Bldg, Campus Dr, Durham, NC 27705",
    "latitude": 36.005055,
    "langitude": -78.914749,
    "spawn_rate": "Low",
    "note": ""
  },
  {
    "species": "",
    "name": "Subnest in Duke Gardens near South Lawn",
    "address": "Flowers Dr at Duke Garden",
    "latitude": 36.000689,
    "langitude": -78.935712,
    "spawn_rate": "Low",
    "note": ""
  },
  {
    "species": "",
    "name": "East campus Tennis Court",
    "address": "Duke University: Lilly Library, 1348 Campus Dr",
    "latitude": 36.007449,
    "langitude": -78.916046,
    "spawn_rate": "Low",
    "note": ""
  },
  {
    "species": "",
    "name": "Lawn in front of Levine Science Research Center",
    "address": "Levine Science Research Center",
    "latitude": 36.005051,
    "langitude": -78.940559,
    "spawn_rate": "Low",
    "note": ""
  },
  {
    "species": "",
    "name": "Lawn in front of Hudson Hall",
    "address": "Hudson Hall, Duke University",
    "latitude": 36.003569,
    "langitude": -78.940196,
    "spawn_rate": "Low",
    "note": ""
  },
  {
    "species": "Hippopotas",
    "name": "Duke Pond",
    "address": "Circuit Dr, Durham, NC 27708",
    "latitude": 36.002865,
    "langitude": -78.946401,
    "spawn_rate": "Low",
    "note": ""
  },
  {
    "species": "",
    "name": "Muirhead Plaza",
    "address": "415 W Main St, Durham",
    "latitude": 35.99704,
    "langitude": -78.904552,
    "spawn_rate": "Low",
    "note": ""
  },
  {
    "species": "",
    "name": "Westover Park",
    "address": "1900 Maryland Ave, Durham, NC 27705",
    "latitude": 36.02516,
    "langitude": -78.921189,
    "spawn_rate": "",
    "note": ""
  }
]
